// Jest Snapshot v1, https://goo.gl/fbAQLP

exports[`Alert renders 1`] = `
<div
  className="component-alert alert-error col s12 ease-in custom-show"
>
  <div
    className="alert-content-wrapper"
  >
    error
  </div>
</div>
`;
